{
    "page": 1,
    "total_results": 10000,
    "total_pages": 500,
    "results": [
        {
            "popularity": 639.314,
            "vote_count": 5156,
            "video": false,
            "poster_path": "/udDclJoHjfjb8Ekgsd4FDteOkCU.jpg",
            "id": 475557,
            "adult": false,
            "backdrop_path": "/n6bUvigpRFqSwmPp1m2YADdbRBc.jpg",
            "original_language": "en",
            "original_title": "Joker",
            "genre_ids": [
                80,
                18,
                53
            ],
            "title": "Joker",
            "vote_average": 8.5,
            "overview": "During the 1980s, a failed stand-up comedian is driven insane and turns to a life of crime and chaos in Gotham City while becoming an infamous psychopathic crime figure.",
            "release_date": "2019-10-04"
        },
        {
            "popularity": 341.055,
            "vote_count": 458,
            "video": false,
            "poster_path": "/vqzNJRH4YyquRiWxCCOH0aXggHI.jpg",
            "id": 290859,
            "adult": false,
            "backdrop_path": "/rtf4vjjLZLalpOzDUi0Qd2GTUqq.jpg",
            "original_language": "en",
            "original_title": "Terminator: Dark Fate",
            "genre_ids": [
                28,
                878
            ],
            "title": "Terminator: Dark Fate",
            "vote_average": 6.5,
            "overview": "More than two decades have passed since Sarah Connor prevented Judgment Day, changed the future, and re-wrote the fate of the human race. Dani Ramos is living a simple life in Mexico City with her brother and father when a highly advanced and deadly new Terminator – a Rev-9 – travels back through time to hunt and kill her. Dani's survival depends on her joining forces with two warriors: Grace, an enhanced super-soldier from the future, and a battle-hardened Sarah Connor. As the Rev-9 ruthlessly destroys everything and everyone in its path on the hunt for Dani, the three are led to a T-800 from Sarah’s past that may be their last best hope.",
            "release_date": "2019-11-01"
        },
        {
            "popularity": 207.234,
            "vote_count": 3467,
            "video": false,
            "poster_path": "/2bXbqYdUdNVa8VIWXVfclP2ICtT.jpg",
            "id": 420818,
            "adult": false,
            "backdrop_path": "/nRXO2SnOA75OsWhNhXstHB8ZmI3.jpg",
            "original_language": "en",
            "original_title": "The Lion King",
            "genre_ids": [
                12,
                16,
                18
            ],
            "title": "The Lion King",
            "vote_average": 7.1,
            "overview": "Simba idolises his father, King Mufasa, and takes to heart his own royal destiny. But not everyone in the kingdom celebrates the new cub's arrival. Scar, Mufasa's brother—and former heir to the throne—has plans of his own. The battle for Pride Rock is ravaged with betrayal, tragedy and drama, ultimately resulting in Simba's exile. With help from a curious pair of newfound friends, Simba will have to figure out how to grow up and take back what is rightfully his.",
            "release_date": "2019-07-19"
        },
        {
            "popularity": 191.221,
            "vote_count": 774,
            "video": false,
            "poster_path": "/tBuabjEqxzoUBHfbyNbd8ulgy5j.jpg",
            "id": 420809,
            "adult": false,
            "backdrop_path": "/skvI4rYFrKXS73BJxWGH54Omlvv.jpg",
            "original_language": "en",
            "original_title": "Maleficent: Mistress of Evil",
            "genre_ids": [
                12,
                14,
                10751
            ],
            "title": "Maleficent: Mistress of Evil",
            "vote_average": 7.2,
            "overview": "Maleficent and her goddaughter Aurora begin to question the complex family ties that bind them as they are pulled in different directions by impending nuptials, unexpected allies, and dark new forces at play.",
            "release_date": "2019-10-18"
        },
        {
            "popularity": 156.346,
            "vote_count": 1822,
            "video": false,
            "poster_path": "/kvpNZAQow5es1tSY6XW2jAZuPPG.jpg",
            "id": 384018,
            "adult": false,
            "backdrop_path": "/qAhedRxRYWZAgZ8O8pHIl6QHdD7.jpg",
            "original_language": "en",
            "original_title": "Fast & Furious Presents: Hobbs & Shaw",
            "genre_ids": [
                28,
                12,
                35
            ],
            "title": "Fast & Furious Presents: Hobbs & Shaw",
            "vote_average": 6.5,
            "overview": "Ever since US Diplomatic Security Service Agent Hobbs and lawless outcast Shaw first faced off, they just have swapped smacks and bad words. But when cyber-genetically enhanced anarchist Brixton's ruthless actions threaten the future of humanity, both join forces to defeat him. (A spin-off of “The Fate of the Furious,” focusing on Johnson's Luke Hobbs and Statham's Deckard Shaw.)",
            "release_date": "2019-08-02"
        },
        {
            "popularity": 155.652,
            "vote_count": 21,
            "video": false,
            "poster_path": "/qdfARIhgpgZOBh3vfNhWS4hmSo3.jpg",
            "id": 330457,
            "adult": false,
            "backdrop_path": "/xJWPZIYOEFIjZpBL7SVBGnzRYXp.jpg",
            "original_language": "en",
            "original_title": "Frozen II",
            "genre_ids": [
                12,
                16,
                35,
                14,
                10402,
                10751
            ],
            "title": "Frozen II",
            "vote_average": 6.4,
            "overview": "Elsa, Anna, Kristoff and Olaf are going far in the forest to know the truth about an ancient mystery of their kingdom.",
            "release_date": "2019-11-22"
        },
        {
            "popularity": 189.914,
            "vote_count": 8327,
            "video": false,
            "poster_path": "/jpfkzbIXgKZqCZAkEkFH2VYF63s.jpg",
            "id": 920,
            "adult": false,
            "backdrop_path": "/a1MlbLBk5Sy6YvMbSuKfwGlDVlb.jpg",
            "original_language": "en",
            "original_title": "Cars",
            "genre_ids": [
                12,
                16,
                35,
                10751
            ],
            "title": "Cars",
            "vote_average": 6.7,
            "overview": "Lightning McQueen, a hotshot rookie race car driven to succeed, discovers that life is about the journey, not the finish line, when he finds himself unexpectedly detoured in the sleepy Route 66 town of Radiator Springs. On route across the country to the big Piston Cup Championship in California to compete against two seasoned pros, McQueen gets to know the town's offbeat characters.",
            "release_date": "2006-06-09"
        },
        {
            "popularity": 137.501,
            "vote_count": 81,
            "video": false,
            "poster_path": "/4E2lyUGLEr3yH4q6kJxPkQUhX7n.jpg",
            "id": 568012,
            "adult": false,
            "backdrop_path": "/iGnCzXEx0cFlUbpyAMeHwHWhPhx.jpg",
            "original_language": "ja",
            "original_title": "ワンピーススタンピード",
            "genre_ids": [
                28,
                12,
                16
            ],
            "title": "One Piece: Stampede",
            "vote_average": 7.3,
            "overview": "One Piece: Stampede is a stand-alone film that celebrates the anime's 20th Anniversary and takes place outside the canon of the \"One Piece\" TV series. Monkey D. Luffy and his Straw Hat pirate crew are invited to a massive Pirate Festival that brings many of the most iconic characters from throughout the franchise to participate in competition with the Straw Hats to find Roger's treasure. It also pits the Straw Hats against a new enemy named Bullet, a former member of Roger's crew.",
            "release_date": "2019-10-24"
        },
        {
            "popularity": 134.223,
            "vote_count": 262,
            "video": false,
            "poster_path": "/p69QzIBbN06aTYqRRiCOY1emNBh.jpg",
            "id": 501170,
            "adult": false,
            "backdrop_path": "/1nm0sk8UUx9jHCTHuMKe2jkt4Pn.jpg",
            "original_language": "en",
            "original_title": "Doctor Sleep",
            "genre_ids": [
                27
            ],
            "title": "Doctor Sleep",
            "vote_average": 7.1,
            "overview": "A traumatized, alcoholic Dan Torrance meets Abra, a kid who also has the ability to \"shine.\" He tries to protect her from the True Knot, a cult whose goal is to feed off of people like them in order to remain immortal.",
            "release_date": "2019-11-08"
        },
        {
            "popularity": 126.529,
            "vote_count": 4922,
            "video": false,
            "poster_path": "/lcq8dVxeeOqHvvgcte707K0KVx5.jpg",
            "id": 429617,
            "adult": false,
            "backdrop_path": "/5myQbDzw3l8K9yofUXRJ4UTVgam.jpg",
            "original_language": "en",
            "original_title": "Spider-Man: Far from Home",
            "genre_ids": [
                28,
                12,
                878
            ],
            "title": "Spider-Man: Far from Home",
            "vote_average": 7.6,
            "overview": "Peter Parker and his friends go on a summer trip to Europe. However, they will hardly be able to rest - Peter will have to agree to help Nick Fury uncover the mystery of creatures that cause natural disasters and destruction throughout the continent.",
            "release_date": "2019-07-02"
        },
        {
            "popularity": 123.744,
            "vote_count": 248,
            "video": false,
            "poster_path": "/xvYCZ740XvngXK0FNeSNVTJJJ5v.jpg",
            "id": 499701,
            "adult": false,
            "backdrop_path": "/61sbyO47yIpsMFyLhY1MWcqjg1Q.jpg",
            "original_language": "en",
            "original_title": "Dora and the Lost City of Gold",
            "genre_ids": [
                12,
                35,
                10751
            ],
            "title": "Dora and the Lost City of Gold",
            "vote_average": 6.5,
            "overview": "Dora, a girl who has spent most of her life exploring the jungle with her parents, now must navigate her most dangerous adventure yet: high school. Always the explorer, Dora quickly finds herself leading Boots (her best friend, a monkey), Diego, and a rag tag group of teens on an adventure to save her parents and solve the impossible mystery behind a lost Inca civilization.",
            "release_date": "2019-08-09"
        },
        {
            "popularity": 110.18,
            "vote_count": 404,
            "video": false,
            "poster_path": "/8u0QBGUbZcBW59VEAdmeFl9g98N.jpg",
            "id": 504949,
            "adult": false,
            "backdrop_path": "/oMAhce30UvkgJwlzMwsuLaPJ5cG.jpg",
            "original_language": "en",
            "original_title": "The King",
            "genre_ids": [
                18,
                36,
                10752
            ],
            "title": "The King",
            "vote_average": 7.3,
            "overview": "England, 15th century. Hal, a capricious prince who lives among the populace far from court, is forced by circumstances to reluctantly accept the throne and become Henry V.",
            "release_date": "2019-10-11"
        },
        {
            "popularity": 107.598,
            "vote_count": 193,
            "video": false,
            "poster_path": "/g4z7mDmJmx23vsVg6XNWcnXb6gc.jpg",
            "id": 480105,
            "adult": false,
            "backdrop_path": "/3uG3aOhEzFCjcQulsJQiAzLSrw8.jpg",
            "original_language": "en",
            "original_title": "47 Meters Down: Uncaged",
            "genre_ids": [
                12,
                27,
                53
            ],
            "title": "47 Meters Down: Uncaged",
            "vote_average": 5,
            "overview": "A group of backpackers diving in a ruined underwater city discover that they have stumbled into the territory of the ocean's deadliest shark species.",
            "release_date": "2019-08-16"
        },
        {
            "popularity": 128.919,
            "vote_count": 4028,
            "video": false,
            "poster_path": "/3iYQTLGoy7QnjcUYRJy4YrAgGvp.jpg",
            "id": 420817,
            "adult": false,
            "backdrop_path": "/rVqY0Bo4Npf6EIONUROxjYAJfmD.jpg",
            "original_language": "en",
            "original_title": "Aladdin",
            "genre_ids": [
                12,
                35,
                14,
                10749,
                10751
            ],
            "title": "Aladdin",
            "vote_average": 7.1,
            "overview": "A kindhearted street urchin named Aladdin embarks on a magical adventure after finding a lamp that releases a wisecracking genie while a power-hungry Grand Vizier vies for the same lamp that has the power to make their deepest wishes come true.",
            "release_date": "2019-05-24"
        },
        {
            "popularity": 123.74,
            "vote_count": 2394,
            "video": false,
            "poster_path": "/cCTJPelKGLhALq3r51A9uMonxKj.jpg",
            "id": 320288,
            "adult": false,
            "backdrop_path": "/cjRUhKyt2Jo3V1KNzc5tpPNfccG.jpg",
            "original_language": "en",
            "original_title": "Dark Phoenix",
            "genre_ids": [
                28,
                12,
                878
            ],
            "title": "Dark Phoenix",
            "vote_average": 6.1,
            "overview": "The X-Men face their most formidable and powerful foe when one of their own, Jean Grey, starts to spiral out of control. During a rescue mission in outer space, Jean is nearly killed when she's hit by a mysterious cosmic force. Once she returns home, this force not only makes her infinitely more powerful, but far more unstable. The X-Men must now band together to save her soul and battle aliens that want to use Grey's new abilities to rule the galaxy.",
            "release_date": "2019-06-07"
        },
        {
            "popularity": 102.269,
            "vote_count": 15736,
            "video": false,
            "poster_path": "/7WsyChQLEftFiDOVTGkv3hFpyyt.jpg",
            "id": 299536,
            "adult": false,
            "backdrop_path": "/bOGkgRGdhrBYJSLpXaxhXVstddV.jpg",
            "original_language": "en",
            "original_title": "Avengers: Infinity War",
            "genre_ids": [
                28,
                12,
                878
            ],
            "title": "Avengers: Infinity War",
            "vote_average": 8.3,
            "overview": "As the Avengers and their allies have continued to protect the world from threats too large for any one hero to handle, a new danger has emerged from the cosmic shadows: Thanos. A despot of intergalactic infamy, his goal is to collect all six Infinity Stones, artifacts of unimaginable power, and use them to inflict his twisted will on all of reality. Everything the Avengers have fought for has led up to this moment - the fate of Earth and existence itself has never been more uncertain.",
            "release_date": "2018-04-27"
        },
        {
            "popularity": 87.069,
            "vote_count": 88,
            "video": false,
            "poster_path": "/tXTccijjTnpXWFEMaHC1gp59cNc.jpg",
            "id": 295151,
            "adult": false,
            "backdrop_path": "/9REB0BCTk2RueTj5PuELYRYJN5e.jpg",
            "original_language": "en",
            "original_title": "Let It Snow",
            "genre_ids": [
                35,
                10749
            ],
            "title": "Let It Snow",
            "vote_average": 6.4,
            "overview": "When a huge blizzard (that doesn't show signs of stopping) hits, Gracetown is completely snowed in. But even though it's cold outside, things are heating up inside, proving that Christmas is magical when it comes to love.",
            "release_date": "2019-11-08"
        },
        {
            "popularity": 105.986,
            "vote_count": 1354,
            "video": false,
            "poster_path": "/ePXuKdXZuJx8hHMNr2yM4jY2L7Z.jpg",
            "id": 559969,
            "adult": false,
            "backdrop_path": "/ijiE9WoGSwSzM16zTxvUneJ8RXc.jpg",
            "original_language": "en",
            "original_title": "El Camino: A Breaking Bad Movie",
            "genre_ids": [
                80,
                18,
                53
            ],
            "title": "El Camino: A Breaking Bad Movie",
            "vote_average": 7.1,
            "overview": "In the wake of his dramatic escape from captivity, Jesse Pinkman must come to terms with his past in order to forge some kind of future.",
            "release_date": "2019-10-11"
        },
        {
            "popularity": 87.43,
            "vote_count": 334,
            "video": false,
            "poster_path": "/pIcV8XXIIvJCbtPoxF9qHMKdRr2.jpg",
            "id": 338967,
            "adult": false,
            "backdrop_path": "/jCCdt0e8Xe9ttvevD4S3TSMNdH.jpg",
            "original_language": "en",
            "original_title": "Zombieland: Double Tap",
            "genre_ids": [
                28,
                35,
                27
            ],
            "title": "Zombieland: Double Tap",
            "vote_average": 7.3,
            "overview": "Columbus, Tallahassee, Wichita, and Little Rock move to the American heartland as they face off against evolved zombies, fellow survivors, and the growing pains of the snarky makeshift family.",
            "release_date": "2019-10-18"
        },
        {
            "popularity": 96.802,
            "vote_count": 354,
            "video": false,
            "poster_path": "/tximyCXMEnWIIyOy9STkOduUprG.jpg",
            "id": 521777,
            "adult": false,
            "backdrop_path": "/zIZv4pPJRg3YTnWWuotwXnYu1fM.jpg",
            "original_language": "en",
            "original_title": "Good Boys",
            "genre_ids": [
                35
            ],
            "title": "Good Boys",
            "vote_average": 6.5,
            "overview": "A group of young boys on the cusp of becoming teenagers embark on an epic quest to fix their broken drone before their parents get home.",
            "release_date": "2019-08-16"
        }
    ]
}
